Add cumulative incidence function to data — add_cif • pammtools
…
  data("fourD", package = "etm")
  ped_stacked <- fourD |>
    dplyr::select(-medication, -treated) |>
    as_ped(Surv(time, status) ~., id = "id") |>
    dplyr::mutate(cause = as.factor(cause))
  pam <- pamm(
    ped_status ~ s(tend, by = cause) + sex + sex:cause + age + age:cause,
    data = ped_stacked)
  ped_stacked |>
    make_newdata(tend = unique(tend), cause = unique(cause)) |>
    group_by(cause) |>
    add_cif(pam)
}
#> Loading required package: etm
#> # A tibble: 656 × 9
#> # Groups:   cause [2]
#>       tend    id sex     age cause  intlen      cif cif_lower cif_upper
#>      <dbl> <dbl> <chr> <dbl> <fct>   <dbl>    <dbl>     <dbl>     <dbl>
#>  1 0.00821 5889. Male   65.2 1     0.00821 0.000884  0.000662   0.00116
#>  2 0.0301  5889. Male   65.2 1     0.0219  0.00324   0.00243    0.00426
#>  3 0.0520  5889. Male   65.2 1     0.0219  0.00560   0.00421    0.00734
#>  4 0.0602  5889. Male   65.2 1     0.00821 0.00648   0.00488    0.00849
#>  5 0.0684  5889. Male   65.2 1     0.00821 0.00736   0.00554    0.00965
#>  6 0.0767  5889. Male   65.2 1     0.00821 0.00824   0.00621    0.0108 
#>  7 0.110   5889. Male   65.2 1     0.0329  0.0118    0.00889    0.0154 
#>  8 0.156   5889. Male   65.2 1     0.0465  0.0168    0.0127     0.0219 
#>  9 0.164   5889. Male   65.2 1     0.00821 0.0176    0.0134     0.0230 
#> 10 0.175   5889. Male   65.2 1     0.0110  0.0188    0.0143     0.0245 
#> # ℹ 646 more rows
…
