Plot 1D (smooth) effects — gg_slice • pammtools
…
ci
Logical. Indicates if confidence intervals for the term
of interest should be calculated/plotted. Defaults to TRUE.

    Examples

ped <- tumor[1:200, ] %>% as_ped(Surv(days, status) ~ . )
model <- mgcv::gam(ped_status~s(tend) + s(age, by = complications), data=ped,
  family = poisson(), offset=offset)
make_newdata(ped, age = seq_range(age, 20), complications = levels(complications))
#> # A tibble: 40 × 14
#>    tstart  tend intlen interval    id offset ped_status charlson_score   age
#>     <dbl> <dbl>  <dbl> <fct>    <dbl>  <dbl>      <dbl>          <dbl> <dbl>
#>  1      0     5      5 (0,5]     101.   1.61          0           2.71  16  
#>  2      0     5      5 (0,5]     101.   1.61          0           2.71  19.9
#>  3      0     5      5 (0,5]     101.   1.61          0           2.71  23.8
#>  4      0     5      5 (0,5]     101.   1.61          0           2.71  27.7
#>  5      0     5      5 (0,5]     101.   1.61          0           2.71  31.6
#>  6      0     5      5 (0,5]     101.   1.61          0           2.71  35.5
#>  7      0     5      5 (0,5]     101.   1.61          0           2.71  39.4
#>  8      0     5      5 (0,5]     101.   1.61          0           2.71  43.3
#>  9      0     5      5 (0,5]     101.   1.61          0           2.71  47.2
#> 10      0     5      5 (0,5]     101.   1.61          0           2.71  51.1
#> # ℹ 30 more rows
#> # ℹ 5 more variables: sex <fct>, transfusion <fct>, complications <chr>,
#> #   metastases <fct>, resection <fct>
…
