Data Transformation • pammtools
…
Multiple TDCs observed at different exposure time grids

To illustrate data transformation when TDCs \(\mathbf{z}_1\) and \(\mathbf{z}_2\) were observed on different exposure time grids (\(t_e\) and \(s_e\)) and are assumed to have different lag_lead windows \(\mathcal{T}_1(t)\) and \(\mathcal{T}_2(t)\), we use simulated data simdf_elra contained in pammtools (see example in sim_pexp for data generation).

simdf_elra

## # A tibble: 250 x 9
##       id   time status     x1    x2 te1        z.te1      te2        z.te2
##  * <int>  <dbl>  <int>  <dbl> <dbl> <list>     <list>     <list>     <lis>
##  1     1  2.90       1  1.38  4.83  <int [10]> <dbl [10]> <int [11]> <dbl…
##  2     2  0.110      1 -1.17  2.85  <int [10]> <dbl [10]> <int [11]> <dbl…
##  3     3  0.675      1 -2.02  5.61  <int [10]> <dbl [10]> <int [11]> <dbl…
##  4     4 10.0        0 -0.511 5.43  <int [10]> <dbl [10]> <int [11]> <dbl…
##  5     5  0.588      1 -1.56  2.09  <int [10]> <dbl [10]> <int [11]> <dbl…
##  6     6  0.902      1  1.81  0.226 <int [10]> <dbl [10]> <int [11]> <dbl…
##  7     7  5.07       1 -0.766 0.332 <int [10]> <dbl [10]> <int [11]> <dbl…
##  8     8  6.62       1 -2.05  2.38  <int [10]> <dbl [10]> <int [11]> <dbl…
##  9     9  5.25       1  0.193 0.507 <int [10]> <dbl [10]> <int [11]> <dbl…
## 10    10  0.810      1 -1.66  4.76  <int [10]> <dbl [10]> <int [11]> <dbl…
## # ... with 240 more rows
…
