Add info about term effects to data set — add_term • pammtools
…
      relative
      If TRUE, calculates relative risk contribution,
that is \((X-\bar{X})'\beta\) and respective confidence intervals
if se.fit = TRUE. Defaults to FALSE.

      ...
      Further arguments passed to predict.gam

    Examples

ped <- tumor[1:50,] %>% as_ped(Surv(days, status)~ age)
pam <- mgcv::gam(ped_status ~ s(tend)+age, data = ped, family=poisson(), offset=offset)
ped_info(ped) %>% add_term(pam, term="tend")
#> # A tibble: 22 x 9
#>    tstart  tend intlen intmid interval    age       fit ci_lower ci_upper
#>     <dbl> <dbl>  <dbl>  <dbl> <fct>     <dbl>     <dbl>    <dbl>    <dbl>
#>  1     0.   27.    27.   13.5 (0,27]     59.7  0.367     -0.141     0.874
#>  2    27.   33.     6.   30.0 (27,33]    59.7  0.359     -0.135     0.852
#>  3    33.   55.    22.   44.0 (33,55]    59.7  0.329     -0.114     0.772
#>  4    55.   62.     7.   58.5 (55,62]    59.7  0.319     -0.108     0.747
#>  5    62.  139.    77.  100.  (62,139]   59.7  0.215     -0.0622    0.493
#>  6   139.  209.    70.  174.  (139,209]  59.7  0.123     -0.0694    0.315
#>  7   209.  214.     5.  212.  (209,214]  59.7  0.116     -0.0726    0.305
#>  8   214.  257.    43.  236.  (214,257]  59.7  0.0606    -0.119     0.240
#>  9   257.  304.    47.  280.  (257,304]  59.7  0.000357  -0.202     0.202
#> 10   304.  308.     4.  306.  (304,308]  59.7 -0.00474   -0.210     0.200
#> # ... with 12 more rows
…
