Simulate survival times from the piece-wise exponential distribution — sim_pexp • pammtools
…
# Example 2: Functional covariates/cumulative coefficients
# function to generate one exposure profile, tz is a vector of time points
# at which TDC z was observed
rng_z = function(nz) {
  as.numeric(arima.sim(n = nz, list(ar = c(.8, -.6))))
}
# two different exposure times  for two different exposures
tz1 <- 1:10
tz2 <- -5:5
# generate exposures and add to data set
df <- df %>%
  add_tdc(tz1, rng_z) %>%
  add_tdc(tz2, rng_z)
df
#> # A tibble: 250 x 6
#>        x1    x2 tz1        z.tz1      tz2        z.tz2     
#>     <dbl> <dbl> <list>     <list>     <list>     <list>    
#>  1 -2.87  4.14  <int [10]> <dbl [10]> <int [11]> <dbl [11]>
#>  2  1.20  5.61  <int [10]> <dbl [10]> <int [11]> <dbl [11]>
#>  3 -0.951 2.46  <int [10]> <dbl [10]> <int [11]> <dbl [11]>
#>  4  0.331 3.71  <int [10]> <dbl [10]> <int [11]> <dbl [11]>
#>  5  2.98  4.98  <int [10]> <dbl [10]> <int [11]> <dbl [11]>
#>  6 -1.91  1.43  <int [10]> <dbl [10]> <int [11]> <dbl [11]>
#>  7  1.71  1.19  <int [10]> <dbl [10]> <int [11]> <dbl [11]>
#>  8 -2.87  2.11  <int [10]> <dbl [10]> <int [11]> <dbl [11]>
#>  9  0.274 0.767 <int [10]> <dbl [10]> <int [11]> <dbl [11]>
#> 10 -0.813 5.91  <int [10]> <dbl [10]> <int [11]> <dbl [11]>
#> # ... with 240 more rows
…
