Data Transformation • pammtools
…
Multiple TDCs observed at different exposure time grids

To illustrate data transformation when TDCs \(\mathbf{z}_1\) and \(\mathbf{z}_2\) were observed on different exposure time grids (\(t_z\) and \(s_z\)) and are assumed to have different lag_lead windows \(\mathcal{T}_1(t)\) and \(\mathcal{T}_2(t)\), we use simulated data simdf_elra contained in pammtools (see example in sim_pexp for data generation).

simdf_elra

## # A tibble: 250 x 9
##       id   time status      x1    x2 tz1        z.tz1      tz2        z.tz2     
##  * <int>  <dbl>  <int>   <dbl> <dbl> <list>     <list>     <list>     <list>    
##  1     1  3.22       1  1.59   4.61  <int [10]> <dbl [10]> <int [11]> <dbl [11]>
##  2     2 10          0 -0.530  0.178 <int [10]> <dbl [10]> <int [11]> <dbl [11]>
##  3     3  0.808      1 -2.43   3.25  <int [10]> <dbl [10]> <int [11]> <dbl [11]>
##  4     4  3.04       1  0.696  1.26  <int [10]> <dbl [10]> <int [11]> <dbl [11]>
##  5     5  3.36       1  2.54   3.71  <int [10]> <dbl [10]> <int [11]> <dbl [11]>
##  6     6  4.07       1 -0.0231 0.607 <int [10]> <dbl [10]> <int [11]> <dbl [11]>
##  7     7  0.534      1  1.68   1.74  <int [10]> <dbl [10]> <int [11]> <dbl [11]>
##  8     8  1.57       1 -1.89   2.51  <int [10]> <dbl [10]> <int [11]> <dbl [11]>
##  9     9  2.39       1  0.126  3.38  <int [10]> <dbl [10]> <int [11]> <dbl [11]>
## 10    10  6.61       1  1.79   1.06  <int [10]> <dbl [10]> <int [11]> <dbl [11]>
## # … with 240 more rows
…
